[
  {
    "Mods": [
      {
        "ModifyHealth": 0,
        "ModifyMana": 0,
        "ModifyStamina": 0,
        "RequiresHealth": 0,
        "RequiresMana": 0,
        "RequiresStamina": 0,
        "ModificationScriptId": 0,
        "Unknown10": 0,
        "Unknown7": false,
        "Unknown9": 0
      },
      {
        "ModifyHealth": 0,
        "ModifyMana": 0,
        "ModifyStamina": 0,
        "RequiresHealth": 0,
        "RequiresMana": 0,
        "RequiresStamina": 0,
        "ModificationScriptId": 0,
        "Unknown10": 0,
        "Unknown7": false,
        "Unknown9": 0
      },
      {
        "ModifyHealth": 0,
        "ModifyMana": 0,
        "ModifyStamina": 0,
        "RequiresHealth": 0,
        "RequiresMana": 0,
        "RequiresStamina": 0,
        "ModificationScriptId": 0,
        "Unknown10": 0,
        "Unknown7": false,
        "Unknown9": 0
      },
      {
        "ModifyHealth": 0,
        "ModifyMana": 0,
        "ModifyStamina": 0,
        "RequiresHealth": 0,
        "RequiresMana": 0,
        "RequiresStamina": 0,
        "ModificationScriptId": 0,
        "Unknown10": 0,
        "Unknown7": false,
        "Unknown9": 0
      },
      {
        "ModifyHealth": 0,
        "ModifyMana": 0,
        "ModifyStamina": 0,
        "RequiresHealth": 0,
        "RequiresMana": 0,
        "RequiresStamina": 0,
        "ModificationScriptId": 0,
        "Unknown10": 0,
        "Unknown7": false,
        "Unknown9": 0
      },
      {
        "ModifyHealth": 0,
        "ModifyMana": 0,
        "ModifyStamina": 0,
        "RequiresHealth": 0,
        "RequiresMana": 0,
        "RequiresStamina": 0,
        "ModificationScriptId": 0,
        "Unknown10": 0,
        "Unknown7": false,
        "Unknown9": 0
      },
      {
        "ModifyHealth": 0,
        "ModifyMana": 0,
        "ModifyStamina": 0,
        "RequiresHealth": 0,
        "RequiresMana": 0,
        "RequiresStamina": 0,
        "ModificationScriptId": 0,
        "Unknown10": 0,
        "Unknown7": false,
        "Unknown9": 0
      },
      {
        "ModifyHealth": 0,
        "ModifyMana": 0,
        "ModifyStamina": 0,
        "RequiresHealth": 0,
        "RequiresMana": 0,
        "RequiresStamina": 0,
        "ModificationScriptId": 0,
        "Unknown10": 0,
        "Unknown7": false,
        "Unknown9": 0
      }
    ],
    "Requirements": [
      "IntRequirements",
      [
        {
          "Message": "You need 10 meats for this recipe.",
          "OperationType": 3,
          "Stat": 12,
          "Value": 10
        }
      ],
      null,
      null
    ],
    "SkillCheckFormulaType": 0,
    "DataID": 0,
    "Difficulty": 120,
    "FailAmount": 0,
    "FailMessage": "You fail to carve the meat.",
    "FailWcid": 0,
    "FailureConsumeTargetAmount": 10,
    "FailureConsumeTargetChance": 1.0,
    "FailureConsumeTargetMessage": "",
    "FailureConsumeToolAmount": 0,
    "FailureConsumeToolChance": 0.0,
    "FailureConsumeToolMessage": "",
    "RecipeID": 6000,
    "Skill": 39,
    "SuccessAmount": 1,
    "SuccessConsumeTargetAmount": 10,
    "SuccessConsumeTargetChance": 1.0,
    "SuccessConsumeTargetMessage": "",
    "SuccessConsumeToolAmount": 0,
    "SuccessConsumeToolChance": 0.0,
    "SuccessConsumeToolMessage": "",
    "SuccessMessage": "You carve out a pack cow.",
    "SuccessWcid": 9175,
    "Unknown": 0
  },
  {
    "Mods": [
      {
        "ModifyHealth": 0,
        "ModifyMana": 0,
        "ModifyStamina": 0,
        "RequiresHealth": 0,
        "RequiresMana": 0,
        "RequiresStamina": 0,
        "ModificationScriptId": 0,
        "Unknown10": 0,
        "Unknown7": false,
        "Unknown9": 0
      },
      {
        "ModifyHealth": 0,
        "ModifyMana": 0,
        "ModifyStamina": 0,
        "RequiresHealth": 0,
        "RequiresMana": 0,
        "RequiresStamina": 0,
        "ModificationScriptId": 0,
        "Unknown10": 0,
        "Unknown7": false,
        "Unknown9": 0
      },
      {
        "ModifyHealth": 0,
        "ModifyMana": 0,
        "ModifyStamina": 0,
        "RequiresHealth": 0,
        "RequiresMana": 0,
        "RequiresStamina": 0,
        "ModificationScriptId": 0,
        "Unknown10": 0,
        "Unknown7": false,
        "Unknown9": 0
      },
      {
        "ModifyHealth": 0,
        "ModifyMana": 0,
        "ModifyStamina": 0,
        "RequiresHealth": 0,
        "RequiresMana": 0,
        "RequiresStamina": 0,
        "ModificationScriptId": 0,
        "Unknown10": 0,
        "Unknown7": false,
        "Unknown9": 0
      },
      {
        "ModifyHealth": 0,
        "ModifyMana": 0,
        "ModifyStamina": 0,
        "RequiresHealth": 0,
        "RequiresMana": 0,
        "RequiresStamina": 0,
        "ModificationScriptId": 0,
        "Unknown10": 0,
        "Unknown7": false,
        "Unknown9": 0
      },
      {
        "ModifyHealth": 0,
        "ModifyMana": 0,
        "ModifyStamina": 0,
        "RequiresHealth": 0,
        "RequiresMana": 0,
        "RequiresStamina": 0,
        "ModificationScriptId": 0,
        "Unknown10": 0,
        "Unknown7": false,
        "Unknown9": 0
      },
      {
        "ModifyHealth": 0,
        "ModifyMana": 0,
        "ModifyStamina": 0,
        "RequiresHealth": 0,
        "RequiresMana": 0,
        "RequiresStamina": 0,
        "ModificationScriptId": 0,
        "Unknown10": 0,
        "Unknown7": false,
        "Unknown9": 0
      },
      {
        "ModifyHealth": 0,
        "ModifyMana": 0,
        "ModifyStamina": 0,
        "RequiresHealth": 0,
        "RequiresMana": 0,
        "RequiresStamina": 0,
        "ModificationScriptId": 0,
        "Unknown10": 0,
        "Unknown7": false,
        "Unknown9": 0
      }
    ],
    "Requirements": [ null, null, null ],
    "SkillCheckFormulaType": 0,
    "DataID": 0,
    "Difficulty": 5,
    "FailAmount": 0,
    "FailMessage": "You fail to carve the carcass.",
    "FailWcid": 0,
    "FailureConsumeTargetAmount": 1,
    "FailureConsumeTargetChance": 1.0,
    "FailureConsumeTargetMessage": "",
    "FailureConsumeToolAmount": 0,
    "FailureConsumeToolChance": 0.0,
    "FailureConsumeToolMessage": "",
    "RecipeID": 50,
    "Skill": 39,
    "SuccessAmount": 5,
    "SuccessConsumeTargetAmount": 1,
    "SuccessConsumeTargetChance": 1.0,
    "SuccessConsumeTargetMessage": "",
    "SuccessConsumeToolAmount": 0,
    "SuccessConsumeToolChance": 0.0,
    "SuccessConsumeToolMessage": "",
    "SuccessMessage": "You carve out 5 rabbit pieces.",
    "SuccessWcid": 5212,
    "Unknown": 0
  }
]
